[gd_scene load_steps=5 format=2]

[ext_resource path="res://Environment/Exit.gd" type="Script" id=1]
[ext_resource path="res://Environment/Door.png" type="Texture" id=2]

[sub_resource type="RectangleShape2D" id=1]

custom_solver_bias = 0.0
extents = Vector2( 20, 200 )

[sub_resource type="RectangleShape2D" id=2]

custom_solver_bias = 0.0
extents = Vector2( 20, 200 )

[node name="Exit" type="Node2D"]

script = ExtResource( 1 )
_sections_unfolded = [ "Audio Bus", "Collision" ]

[node name="Label" type="Label" parent="." index="0"]

anchor_left = 0.0
anchor_top = 0.0
anchor_right = 0.0
anchor_bottom = 0.0
margin_left = -4.0
margin_top = -4.0
margin_right = 36.0
margin_bottom = 10.0
rect_pivot_offset = Vector2( 0, 0 )
rect_clip_content = false
mouse_filter = 2
mouse_default_cursor_shape = 0
size_flags_horizontal = 1
size_flags_vertical = 4
text = "5"
percent_visible = 1.0
lines_skipped = 0
max_lines_visible = -1
_sections_unfolded = [ "custom_fonts" ]

[node name="ExitLine" type="Area2D" parent="." index="1"]

input_pickable = true
gravity_vec = Vector2( 0, 1 )
gravity = 98.0
linear_damp = 0.1
angular_damp = 1.0
collision_layer = 0
collision_mask = 2
audio_bus_override = false
audio_bus_name = "Master"
_sections_unfolded = [ "Collision" ]

[node name="Shape" type="CollisionShape2D" parent="ExitLine" index="0"]

position = Vector2( 114.127, 0 )
shape = SubResource( 1 )
_sections_unfolded = [ "Transform", "Z Index" ]

[node name="Wall" type="StaticBody2D" parent="." index="2"]

input_pickable = false
collision_layer = 1
collision_mask = 1
constant_linear_velocity = Vector2( 0, 0 )
constant_angular_velocity = 0.0
friction = 1.0
bounce = 0.0

[node name="Shape" type="CollisionShape2D" parent="Wall" index="0"]

shape = SubResource( 2 )
_sections_unfolded = [ "Transform", "Z Index" ]

[node name="Sprite" type="Sprite" parent="." index="3"]

position = Vector2( 113.451, 15.682 )
scale = Vector2( 13.2308, 13.2308 )
texture = ExtResource( 2 )
region_rect = Rect2( 40, 0, 40, 200 )
_sections_unfolded = [ "Region", "Transform" ]

[connection signal="body_entered" from="ExitLine" to="." method="_on_ExitLine_body_entered"]


