[gd_scene load_steps=5 format=2]

[ext_resource path="res://Environment/Key.gd" type="Script" id=1]
[ext_resource path="res://Environment/keypiece_1.png" type="Texture" id=2]

[sub_resource type="CircleShape2D" id=1]

custom_solver_bias = 0.0
radius = 100.0

[sub_resource type="Animation" id=2]

resource_name = "Levitating"
length = 4.0
loop = true
step = 0.1
tracks/0/type = "value"
tracks/0/path = NodePath("RedStar:position")
tracks/0/interp = 1
tracks/0/loop_wrap = true
tracks/0/imported = false
tracks/0/enabled = true
tracks/0/keys = {
"times": PoolRealArray( 1, 3 ),
"transitions": PoolRealArray( -4, 2 ),
"update": 0,
"values": [ Vector2( 0, -70.3235 ), Vector2( 0, 55.5185 ) ]
}

[node name="Key" type="Area2D"]

input_pickable = true
gravity_vec = Vector2( 0, 1 )
gravity = 98.0
linear_damp = 0.1
angular_damp = 1.0
collision_layer = 0
collision_mask = 2
audio_bus_override = false
audio_bus_name = "Master"
script = ExtResource( 1 )
_sections_unfolded = [ "Collision", "Transform" ]
texture_idx = 0

[node name="CollisionShape2D" type="CollisionShape2D" parent="." index="0"]

shape = SubResource( 1 )

[node name="RedStar" type="Sprite" parent="." index="1"]

position = Vector2( 0, 24.058 )
scale = Vector2( 5, 5 )
texture = ExtResource( 2 )
_sections_unfolded = [ "Transform" ]

[node name="AnimationPlayer" type="AnimationPlayer" parent="." index="2"]

root_node = NodePath("..")
autoplay = "Levitating"
playback_process_mode = 1
playback_default_blend_time = 0.0
playback_speed = 1.0
anims/Levitating = SubResource( 2 )
blend_times = [  ]

[connection signal="body_entered" from="." to="." method="_on_Key_body_entered"]


